{
    "name": "rooter4",
    "ports": [
        {
            "name": "1"
        },
        {
            "name": "5"
        },
        {
            "name": "6"
        }
    ],
    "clientRules": [
    ],
    "redirectRules": [
        {
            "port1": "6",
            "label1": 2346,
            "label2": 2314,
            "port2": "1"
        },
        {
            "port1": "1",
            "label1": 2314,
            "label2": 2346,
            "port2": "6"
        },
        {
            "port1": "6",
            "label1": 1246,
            "label2": 1245,
            "port2": "5"
        },
        {
            "port1": "5",
            "label1": 1245,
            "label2": 1246,
            "port2": "6"
        },
        {
            "port1": "5",
            "label1": 1345,
            "label2": 1314,
            "port2": "1"
        },
        {
            "port1": "1",
            "label1": 1314,
            "label2": 1345,
            "port2": "5"
        }
    ]
}