{
    "name": "rooter7",
    "ports": [
        {
            "name": "5"
        },
        {
            "name": "6"
        },
        {
            "name": "c2",
            "client": true,
            "clientIP": 9002
        }
    ],
    "clientRules": [
        {
            "ip": 9003,
            "label": 2300
        },
        {
            "ip": 9001,
            "label": 1200
        }
    ],
    "redirectRules": [
        {
            "port1": "c2",
            "label1": 2300,
            "label2": 2367,
            "port2": "6"
        },
        {
            "port1": "6",
            "label1": 2367,
            "port2": "c2",
            "stack": -1
        },
        {
            "port1": "c2",
            "label1": 1200,
            "label2": 1257,
            "port2": "5"
        },
        {
            "port1": "5",
            "label1": 1257,
            "port2": "c2",
            "stack": -1
        }
    ]
}